…
``` r
library(irpfrv)
```

A primeira função disponível é a **analise_geral**. Para executá-la deve
ser fornecido o arquivo obtido pelo site da B3 e a classe do ativo que
deve ser analisado. Existem 3 opções:  
\* acoes \* fiis \* etfs.  
Ela retorna o codigo de negociação, o código geral do ativo, o preço
médio, o custo de aquisição, o número/quantidade de cada ativo e o nome
da empresa. Essa função dá uma visão geral dos seus investimentos.

``` r
analise_geral("../pacotefiles/cei_compilado.xlsx", classe = acoes)
#> # A tibble: 24 x 6
#>    codigo_de_negociacao codigo preco_medio custo_aquisicao numero_ativos empresa
#>    <chr>                <chr>        <dbl>           <dbl>         <dbl> <chr>  
#>  1 BBAS3F               BBAS3        32.3            323.             10 BCO BR~
#>  2 BBSE3F               BBSE3        24.8            594.             24 BB SEG~
#>  3 BIDI4F               BIDI4        23.2           -139.             -6 BANCO ~
#>  4 CASH3F               CASH3        21.9             87.6             4 MÉLIUZ~
#>  5 CIEL3F               CIEL3         4.26             0               0 CIELO ~
#>  6 COGN3F               COGN3         6.9              0               0 COGNA ~
#>  7 ENBR3F               ENBR3        17.9            340.             19 EDP - ~
#>  8 GOLL4F               GOLL4        15.8              0               0 GOL LI~
#>  9 HYPE3F               HYPE3        32.4            324.             10 HYPERA~
#> 10 ITSA4F               ITSA4        10.0            482.             48 ITAUSA~
#> # ... with 14 more rows
```
…
